%YAML 1.1
%TAG !u! tag:unity3d.com,2011:
--- !u!1045 &1
EditorBuildSettings:
  m_ObjectHideFlags: 0
  serializedVersion: 2
  m_Scenes:
  - enabled: 1
    path: Assets/Scenes/MENU.unity
    guid: 1db6d89389be7d54bb5eac763f64b1c2
  - enabled: 1
    path: Assets/Scenes/Astrorush Node change.unity
    guid: ff39674a8be3fea49a0f18ccf6a9835a
  m_configObjects:
    com.unity.input.settings: {fileID: 11400000, guid: 3627cb6507c44cf4a838cc7768f81d9f, type: 2}
